Opinion score of a digital text document (DTD) — opi_score • opitools
…
#> |negative  |                 45|
#> |neutral   |                  1|
#> |positive  |                 40|
#> 
#> $opiscore
#> [1] "-5.88%"
#> 
#> $metric
#> [1] "Polarity (Percentage Difference)"
#> 
#> $equation
#> [1] "((#Positive - #Negative)/(#Positive + #Negative))*100%"
#> 
#> $OSD
#> # A tibble: 86 × 2
#>       ID sentiment
#>    <int> <chr>    
#>  1     1 positive 
#>  2     2 positive 
#>  3     3 negative 
#>  4     4 negative 
#>  5     5 positive 
#>  6     6 positive 
#>  7    10 positive 
#>  8    11 positive 
#>  9    12 positive 
#> 10    13 negative 
#> # … with 76 more rows
…
#> $opiscore
#> [1] -0.04651163
#> 
#> $metric
#> [1] "User-defined"
#> 
#> $equation
#> function(P, N, O){
#>   score <- (P + O - N)/(P + O + N)
#> return(score)
#> }
#> <environment: 0x7ff102fd4d88>
#> 
#> $OSD
#> # A tibble: 86 × 2
#>       ID sentiment
#>    <int> <chr>    
#>  1     1 positive 
#>  2     2 positive 
#>  3     3 negative 
#>  4     4 negative 
#>  5     5 positive 
#>  6     6 positive 
#>  7    10 positive 
#>  8    11 positive 
#>  9    12 positive 
#> 10    13 negative 
#> # … with 76 more rows
…
