Opinion score of a digital text document (DTD) — opi_score • opitools
…
#> $metric
#> [1] "Polarity (Percentage Difference)"
#> 
#> $equation
#> [1] "((#Positive - #Negative)/(#Positive + #Negative))*100%"
#> 
#> $OSD
#> Warning: `...` is not empty.
#> 
#> We detected these problematic arguments:
#> * `needs_dots`
#> 
#> These dots only exist to allow future extensions and should be empty.
#> Did you misspecify an argument?
#> # A tibble: 86 x 2
#>       ID sentiment
#>    <int> <chr>    
#>  1     1 positive 
#>  2     2 positive 
#>  3     3 negative 
#>  4     4 negative 
#>  5     5 positive 
#>  6     6 positive 
#>  7    10 positive 
#>  8    11 positive 
#>  9    12 positive 
#> 10    13 negative 
#> # ... with 76 more rows
…
#> function(P, N, O){
#>   score <- (P + O - N)/(P + O + N)
#> return(score)
#> }
#> <environment: 0x00000000476af450>
#> 
#> $OSD
#> Warning: `...` is not empty.
#> 
#> We detected these problematic arguments:
#> * `needs_dots`
#> 
#> These dots only exist to allow future extensions and should be empty.
#> Did you misspecify an argument?
#> # A tibble: 86 x 2
#>       ID sentiment
#>    <int> <chr>    
#>  1     1 positive 
#>  2     2 positive 
#>  3     3 negative 
#>  4     4 negative 
#>  5     5 positive 
#>  6     6 positive 
#>  7    10 positive 
#>  8    11 positive 
#>  9    12 positive 
#> 10    13 negative 
#> # ... with 76 more rows
…
